<svg width="61" height="61" viewBox="0 0 61 61" fill="none" xmlns="http://www.w3.org/2000/svg">
<g clip-path="url(#clip0)">
<path d="M60.1064 50.2653C59.6129 50.2653 59.2129 50.6653 59.2129 51.1588V57.1293C59.2129 57.2122 59.1455 57.2798 59.0624 57.2798H55.6672V44.2247C55.6672 43.7312 55.2672 43.3312 54.7736 43.3312C54.28 43.3312 53.8801 43.7312 53.8801 44.2247V57.2799H47.319L49.0948 55.3263C49.369 55.0246 49.4983 54.596 49.4408 54.1799C49.4395 54.1709 49.4381 54.1621 49.4366 54.1532L47.4404 42.3587L47.8077 41.8058L47.9034 41.8737C48.2309 42.1064 48.6486 42.1912 49.0527 42.0903C49.4496 41.9911 49.7821 41.7241 49.9649 41.3581V41.358L51.9961 37.2868L56.636 39.0838C56.8191 39.1634 59.2124 40.2608 59.2124 43.1161V46.9887C59.2125 47.4823 59.6125 47.8823 60.1061 47.8823C60.5997 47.8823 60.9996 47.4823 60.9996 46.9888V43.1162C60.9996 38.9928 57.463 37.4915 57.3125 37.4296C57.3068 37.4272 57.3012 37.4249 57.2955 37.4228L49.3944 34.3628V32.7353C50.6278 31.7431 51.4939 30.3131 51.754 28.6829C52.3691 28.6057 52.9398 28.3594 53.4134 27.9521C54.0925 27.368 54.4822 26.5182 54.4822 25.6207C54.4822 24.9043 54.2335 24.2188 53.7883 23.6743V21.2632C53.7883 16.5445 49.9494 12.7057 45.2309 12.7057C43.1125 12.7057 41.1729 13.481 39.6768 14.7608C39.6575 14.0761 39.4125 13.4237 38.9854 12.9014V10.4904C38.9854 5.77168 35.1464 1.93286 30.428 1.93286C25.7093 1.93286 21.8705 5.7718 21.8705 10.4904V12.9643C21.441 13.4776 21.2007 14.0964 21.1795 14.7532C20.2249 13.9374 19.0825 13.3233 17.8092 12.988C17.3312 12.8622 16.8431 13.1473 16.7174 13.6246C16.5917 14.1019 16.8767 14.5907 17.354 14.7164C20.3221 15.4979 22.3952 18.1902 22.3952 21.263V22.5994C22.3566 22.5914 22.2327 22.5701 22.2279 22.5694C22.2158 22.3172 22.1519 22.1631 22.0144 21.9654C21.7857 21.6367 21.3749 21.2272 20.0536 19.807C19.5827 19.3013 18.8212 19.2085 18.2431 19.5864C15.9801 21.0647 13.2307 21.8181 10.6791 21.6683C9.84803 21.6196 9.32893 21.9848 9.10769 22.5832C9.08791 22.5864 8.8669 22.631 8.85463 22.634V21.263C8.85463 18.3001 10.8345 15.6346 13.6692 14.7807C14.1417 14.6385 14.4094 14.14 14.2672 13.6674C14.1248 13.1947 13.6256 12.927 13.1537 13.0695C11.4297 13.5887 9.88007 14.6698 8.79054 16.1133C7.66311 17.6066 7.06729 19.3874 7.06729 21.2632V23.7372C6.61718 24.275 6.37377 24.9286 6.37377 25.6207C6.37377 27.1505 7.50084 28.4846 9.10661 28.6836C9.36968 30.2756 10.2334 31.8024 11.5966 32.8405V34.3632L3.70443 37.423C3.69883 37.4251 3.69323 37.4274 3.68763 37.4297C3.5368 37.4915 0 38.9927 0 43.1161V57.1293C0 58.1979 0.869248 59.067 1.93782 59.067H29.4558C29.8404 59.067 30.1982 58.953 30.5001 58.759C30.8017 58.953 31.1596 59.067 31.5443 59.067H59.0624C60.1309 59.067 61.0001 58.1979 61.0001 57.1293V51.1588C61 50.6653 60.6 50.2653 60.1064 50.2653ZM9.01917 26.8373C8.49531 26.6471 8.16064 26.1626 8.16064 25.6205C8.16064 25.0947 8.54189 24.6627 9.01917 24.4577V26.8373ZM50.3224 36.6386L48.5684 40.1539C48.5682 40.1537 46.6201 38.7701 46.5925 38.7505C47.4329 37.713 47.0381 38.2004 48.7856 36.0435L50.3224 36.6386ZM45.3008 37.5057L42.9898 34.6531V33.7959C43.741 34.0556 44.5502 34.1755 45.3118 34.1757C45.312 34.1757 45.3122 34.1757 45.3123 34.1757H45.3124C46.0999 34.1756 46.8972 34.0261 47.6073 33.7588V34.6586L45.3008 37.5057ZM46.3499 40.7705L46.0212 41.2653H44.5807L44.252 40.7705L45.301 40.0255L46.3499 40.7705ZM30.4977 26.7328L28.1867 23.8802V23.023C28.9349 23.2816 29.7433 23.4026 30.5088 23.4028C30.5089 23.4028 30.5091 23.4028 30.5092 23.4028H30.5094C31.2954 23.4028 32.0926 23.2537 32.8042 22.986V23.8857L30.4977 26.7328ZM31.5467 29.9978L31.218 30.4926H29.7775L29.4488 29.9978L30.4978 29.2528L31.5467 29.9978ZM23.4609 17.825C23.607 17.8648 23.7571 17.8918 23.9095 17.9107C24.1725 19.5027 25.0363 21.0295 26.3995 22.0676V23.5903L24.5765 24.2969C24.4708 24.075 24.3387 23.8659 24.1819 23.6742V21.2632C24.1819 20.0505 23.9265 18.8849 23.4609 17.825ZM35.246 16.8788C35.246 19.4943 33.1125 21.6153 30.5094 21.6153C27.5724 21.6153 25.6097 19.3392 25.6097 16.8788V12.6931C28.4313 12.8061 31.3625 11.9698 33.759 10.4782C34.5648 11.3422 35.0442 11.8442 35.2461 12.0772C35.246 14.3019 35.246 15.1609 35.246 16.8788ZM36.951 17.9101C37.1026 17.891 37.252 17.8638 37.3972 17.8242C36.933 18.8774 36.6733 20.0402 36.6733 21.2632V23.7371C36.536 23.9012 36.4178 24.0759 36.3199 24.2593L34.5915 23.59V21.9625C35.8247 20.9702 36.691 19.5401 36.951 17.9101ZM27.0097 25.272L29.2033 27.9796L27.7074 29.0421C27.7066 29.0427 27.706 29.0433 27.7051 29.0439L27.2304 29.3811L25.4763 25.8659L27.0097 25.272ZM32.5543 27.0334L33.9824 25.2706L35.5192 25.8657L33.7653 29.3811L33.2895 29.0433C33.289 29.0429 33.2885 29.0424 33.2881 29.0421L31.7894 27.9775L32.5543 27.0334ZM33.0046 31.033L33.1003 31.1009C33.4344 31.3383 33.8536 31.4167 34.2496 31.3175C34.6465 31.2183 34.979 30.9513 35.1618 30.5853V30.5852L36.6699 27.5627C37.188 28.2013 37.9374 28.5897 38.7092 28.6861C38.9818 30.3945 39.9052 31.8526 41.2027 32.8405V34.3631L33.6058 37.3084L32.6372 31.5861L33.0046 31.033ZM41.8128 36.0448L44.0064 38.7524C43.0473 39.4337 42.0831 40.1187 42.0334 40.1539L40.2793 36.6387L41.8128 36.0448ZM50.049 27.6517C50.0492 30.2033 47.977 32.3882 45.3124 32.3882C42.2753 32.3882 40.4128 30.0095 40.4128 27.6517V23.4661C43.2142 23.5779 46.1493 22.7528 48.562 21.2511C49.3677 22.1151 49.8471 22.6171 50.0491 22.8501C50.049 25.0747 50.049 25.9338 50.049 27.6517ZM52.6951 25.6206C52.6951 26.1636 52.3593 26.6472 51.8366 26.8373V24.4064C52.377 24.6033 52.6951 25.0971 52.6951 25.6206ZM38.4605 21.263C38.4605 17.5299 41.4978 14.4928 45.2308 14.4928C48.964 14.4928 52.001 17.53 52.001 21.263V22.5994C51.9603 22.591 51.8486 22.5717 51.8337 22.5694C51.8215 22.3169 51.7573 22.1625 51.6202 21.9654C51.3854 21.6281 50.9791 21.2256 49.6594 19.807C49.1985 19.3123 48.4387 19.201 47.8489 19.5864C45.6472 21.0246 42.8655 21.8371 40.2186 21.6651C39.475 21.6164 38.9364 21.9805 38.7135 22.5833C38.6936 22.5866 38.4729 22.6311 38.4604 22.6341V21.263H38.4605ZM38.6256 24.4578V26.8361C38.1001 26.6466 37.767 26.1608 37.767 25.6205C37.7669 25.0947 38.1479 24.6629 38.6256 24.4578ZM37.8918 14.8478C37.8918 15.224 37.7289 15.5799 37.445 15.824C37.3231 15.9289 37.1842 16.0094 37.0332 16.0643V13.6335C37.5676 13.8275 37.8918 14.3187 37.8918 14.8478ZM30.4276 3.71997C34.1608 3.71997 37.1979 6.75709 37.1979 10.4902V11.8266C37.1575 11.8183 37.0455 11.7989 37.0306 11.7966C37.0174 11.5229 36.9385 11.3547 36.7776 11.1371C36.5383 10.8132 36.0973 10.368 34.8563 9.03411C34.3877 8.53098 33.6267 8.43388 33.0459 8.81346C30.7207 10.3325 27.9001 11.0718 25.3434 10.8886C24.7179 10.8413 24.129 11.2193 23.9105 11.8103C23.8906 11.8135 23.6699 11.8581 23.6575 11.8611V10.4904H23.6574C23.6574 6.75709 26.6946 3.71997 30.4276 3.71997ZM23.8222 13.6849V16.0645C23.2984 15.8743 22.9637 15.3898 22.9637 14.8477C22.9637 14.3249 23.342 13.8913 23.8222 13.6849ZM22.23 24.4064C22.73 24.5884 23.051 25.0245 23.0829 25.5429C23.1229 26.1193 22.7687 26.6406 22.23 26.8362V24.4064ZM22.1472 28.6858C22.99 28.5804 23.7636 28.1362 24.2709 27.453L25.8338 30.5852C25.8338 30.5852 25.8338 30.5852 25.8339 30.5853C26.0166 30.9514 26.3491 31.2183 26.7459 31.3175C27.1383 31.4156 27.558 31.3405 27.8953 31.1009L27.991 31.033L28.3583 31.586L27.39 37.3067L19.7884 34.3626V32.7359H19.7883C21.0539 31.7155 21.8932 30.2736 22.1472 28.6858ZM15.6944 37.5057L13.3834 34.6531V33.7959C14.1316 34.0545 14.9401 34.1755 15.7056 34.1756C15.7057 34.1756 15.7059 34.1756 15.706 34.1756C16.505 34.1756 17.3009 34.0221 18.0009 33.7588V34.6586L15.6944 37.5057ZM16.7435 40.7705L16.4148 41.2653H14.9743L14.6456 40.7705L15.6946 40.0255L16.7435 40.7705ZM19.1791 36.0435L20.716 36.6387L18.962 40.1539L18.4862 39.8161C18.4857 39.8157 18.4852 39.8152 18.4848 39.8149L16.9861 38.7505L19.1791 36.0435ZM10.8064 27.6517V23.4661C13.643 23.5794 16.5761 22.732 18.9556 21.2511C19.7537 22.107 20.2405 22.6168 20.4427 22.8501C20.4427 25.0748 20.4427 25.9339 20.4427 27.6517C20.4427 30.2505 18.3238 32.3882 15.706 32.3882C12.7915 32.3882 10.8064 30.138 10.8064 27.6517ZM12.2065 36.0448L14.4001 38.7524L12.9042 39.8149C12.9034 39.8155 12.9028 39.8161 12.902 39.8166L12.4272 40.1539L10.6731 36.6387L12.2065 36.0448ZM7.12019 57.28V44.2247C7.12019 43.7312 6.72023 43.3312 6.22663 43.3312C5.73304 43.3312 5.33308 43.7312 5.33308 44.2247V57.2799H1.93782C1.85466 57.2799 1.78723 57.2123 1.78723 57.1294V43.1161C1.78723 40.2461 4.20542 39.1522 4.36197 39.0845L8.99903 37.2868L11.0305 41.358C11.0305 41.358 11.0305 41.358 11.0306 41.3581C11.2133 41.7242 11.5458 41.9911 11.9428 42.0903C12.3351 42.1884 12.7548 42.1133 13.0921 41.8737L13.1878 41.8058L13.5551 42.3587L11.5589 54.1532C11.5573 54.162 11.556 54.1709 11.5547 54.1799C11.4973 54.5958 11.6266 55.0243 11.9009 55.3266L13.6765 57.2799H7.12019V57.28ZM13.3524 54.2661L15.2502 43.0525H16.1389L18.0368 54.2661L15.6946 56.8428L13.3524 54.2661ZM29.6063 57.1293C29.6063 57.2123 29.5388 57.2799 29.4558 57.2799H26.0608V44.2247C26.0608 43.7312 25.6608 43.3312 25.1672 43.3312C24.6736 43.3312 24.2737 43.7312 24.2737 44.2247V57.2799H17.7126L19.4884 55.3263C19.7627 55.0246 19.8919 54.596 19.8344 54.1799C19.8331 54.1709 19.8318 54.1621 19.8302 54.1532L17.834 42.3587L18.2013 41.8058L18.297 41.8737C18.5361 42.0436 18.8192 42.1323 19.1064 42.1323C19.6305 42.1323 20.1186 41.8386 20.3586 41.3581V41.358L22.3898 37.2869L27.0297 39.0839C28.3822 39.6722 29.6061 41.1895 29.6061 43.1161V57.1293H29.6063ZM30.4999 39.8691C30.1298 39.2727 29.637 38.7208 29.043 38.2498L30.0534 32.2798H30.9421L31.953 38.2529C31.3431 38.7372 30.8568 39.2941 30.4999 39.8691ZM36.7265 57.28V44.2247C36.7265 43.7312 36.3265 43.3312 35.8329 43.3312C35.3393 43.3312 34.9393 43.7312 34.9393 44.2247V57.2799H31.5442C31.4612 57.2799 31.3936 57.2123 31.3936 57.1294V43.1161C31.3936 42.0539 31.7267 41.0755 32.4363 40.2535C32.9094 39.7109 33.5369 39.2715 33.9685 39.0845L38.6055 37.2867L40.637 41.358C40.637 41.358 40.637 41.358 40.6371 41.3581C40.8198 41.7242 41.1523 41.9911 41.5491 42.0903C41.9415 42.1884 42.3612 42.1133 42.6985 41.8737L42.7942 41.8058L43.1615 42.3587L41.1653 54.1532C41.1637 54.162 41.1624 54.1709 41.1611 54.1799C41.1037 54.5958 41.2329 55.0243 41.5073 55.3266L43.2829 57.2799H36.7265V57.28ZM42.9587 54.2662L44.8566 43.0526H45.7453L47.6432 54.2662L45.3009 56.8429L42.9587 54.2662Z" fill="#1D3B95"/>
</g>
<defs>
<clipPath id="clip0">
<rect width="61" height="61" fill="white"/>
</clipPath>
</defs>
</svg>
