<svg width="50" height="50" viewBox="0 0 50 50" fill="none" xmlns="http://www.w3.org/2000/svg">
<path d="M44.3237 47.0174H5.67633C2.54661 47.0174 0 44.4707 0 41.341V8.57477C0 5.44505 2.54661 2.89844 5.67633 2.89844H44.3237C47.4534 2.89844 50 5.44505 50 8.57477V41.341C50 44.4707 47.4534 47.0174 44.3237 47.0174ZM5.67633 4.58926C3.47883 4.58926 1.69082 6.37726 1.69082 8.57477V41.341C1.69082 43.5385 3.47883 45.3265 5.67633 45.3265H44.3237C46.5212 45.3265 48.3092 43.5385 48.3092 41.341V8.57477C48.3092 6.37726 46.5212 4.58926 44.3237 4.58926H5.67633Z" fill="#7D7AFF"/>
<path d="M42.3692 34.1103H29.0847C28.6176 34.1103 28.2393 33.7319 28.2393 33.2648C28.2393 32.7983 28.6176 32.4194 29.0847 32.4194H42.3692C42.8358 32.4194 43.2146 32.7983 43.2146 33.2648C43.2146 33.7319 42.8363 34.1103 42.3692 34.1103Z" fill="#7D7AFF"/>
<path d="M42.3692 40.2226H29.0847C28.6176 40.2226 28.2393 39.8442 28.2393 39.3771C28.2393 38.9106 28.6176 38.5317 29.0847 38.5317H42.3692C42.8358 38.5317 43.2146 38.9106 43.2146 39.3771C43.2146 39.8442 42.8363 40.2226 42.3692 40.2226Z" fill="#7D7AFF"/>
<path d="M42.3692 21.8859H29.0847C28.6176 21.8859 28.2393 21.5075 28.2393 21.0405C28.2393 20.5739 28.6176 20.1951 29.0847 20.1951H42.3692C42.8358 20.1951 43.2146 20.5739 43.2146 21.0405C43.2146 21.5075 42.8363 21.8859 42.3692 21.8859Z" fill="#7D7AFF"/>
<path d="M42.3692 27.9982H29.0847C28.6176 27.9982 28.2393 27.6199 28.2393 27.1528C28.2393 26.6862 28.6176 26.3074 29.0847 26.3074H42.3692C42.8358 26.3074 43.2146 26.6862 43.2146 27.1528C43.2146 27.6199 42.8363 27.9982 42.3692 27.9982Z" fill="#7D7AFF"/>
<path d="M49.1546 14.2186H0.845411C0.378359 14.2186 0 13.8403 0 13.3732C0 12.9062 0.378359 12.5278 0.845411 12.5278H49.1546C49.6216 12.5278 50 12.9062 50 13.3732C50 13.8403 49.6216 14.2186 49.1546 14.2186Z" fill="#7D7AFF"/>
<path d="M12.1877 11.2055C10.737 11.2055 9.55664 10.0256 9.55664 8.57492C9.55664 7.12423 10.737 5.94434 12.1877 5.94434C13.6384 5.94434 14.8183 7.12423 14.8183 8.57492C14.8183 10.0256 13.6384 11.2055 12.1877 11.2055ZM12.1877 7.63516C11.6692 7.63516 11.2475 8.05692 11.2475 8.57492C11.2475 9.09292 11.6692 9.51469 12.1877 9.51469C12.7057 9.51469 13.1275 9.09292 13.1275 8.57492C13.1275 8.05692 12.7057 7.63516 12.1877 7.63516Z" fill="#7D7AFF"/>
<path d="M6.09641 11.2055C4.64619 11.2055 3.46582 10.0256 3.46582 8.57492C3.46582 7.12423 4.64619 5.94434 6.09641 5.94434C7.5471 5.94434 8.72746 7.12423 8.72746 8.57492C8.72746 10.0256 7.5471 11.2055 6.09641 11.2055ZM6.09641 7.63516C5.5784 7.63516 5.15664 8.05692 5.15664 8.57492C5.15664 9.09292 5.5784 9.51469 6.09641 9.51469C6.61488 9.51469 7.03664 9.09292 7.03664 8.57492C7.03664 8.05692 6.61488 7.63516 6.09641 7.63516Z" fill="#7D7AFF"/>
<path d="M18.279 11.2055C16.8283 11.2055 15.6484 10.0256 15.6484 8.57492C15.6484 7.12423 16.8283 5.94434 18.279 5.94434C19.7297 5.94434 20.9101 7.12423 20.9101 8.57492C20.9101 10.0256 19.7297 11.2055 18.279 11.2055ZM18.279 7.63516C17.7605 7.63516 17.3393 8.05692 17.3393 8.57492C17.3393 9.09292 17.761 9.51469 18.279 9.51469C18.7975 9.51469 19.2193 9.09292 19.2193 8.57492C19.2193 8.05692 18.7975 7.63516 18.279 7.63516Z" fill="#7D7AFF"/>
<path d="M22.7051 40.2226H7.36689C6.89984 40.2226 6.52148 39.8443 6.52148 39.3772V21.0405C6.52148 20.5739 6.89984 20.1951 7.36689 20.1951H22.7051C23.1721 20.1951 23.5505 20.5739 23.5505 21.0405V39.3772C23.5505 39.8443 23.1721 40.2226 22.7051 40.2226ZM8.21231 38.5318H21.8596V21.8859H8.21231V38.5318Z" fill="#7D7AFF"/>
</svg>
