<?xml version="1.0" encoding="utf-8"?>
<!-- Generator: Adobe Illustrator 23.0.1, SVG Export Plug-In . SVG Version: 6.00 Build 0)  -->
<svg version="1.1" id="Layer_1" xmlns="http://www.w3.org/2000/svg" xmlns:xlink="http://www.w3.org/1999/xlink" x="0px" y="0px"
	 viewBox="0 0 21 21" style="enable-background:new 0 0 21 21;" xml:space="preserve">
<g>
	<path d="M10.8,21h-8C1.2,21,0,19.8,0,18.3V2.8C0,1.2,1.2,0,2.8,0h8c1.5,0,2.8,1.2,2.8,2.8v4c0,0.4-0.3,0.8-0.8,0.8S12,7.2,12,6.8
		v-4c0-0.7-0.6-1.3-1.3-1.3h-8c-0.7,0-1.3,0.6-1.3,1.3v15.5c0,0.7,0.6,1.3,1.3,1.3h8c0.7,0,1.3-0.6,1.3-1.3v-4
		c0-0.4,0.3-0.8,0.8-0.8s0.8,0.3,0.8,0.8v4C13.5,19.8,12.3,21,10.8,21z"/>
</g>
<g>
	<path d="M19.5,11.3H5.3c-0.4,0-0.8-0.3-0.8-0.8s0.3-0.8,0.8-0.8h14.3c0.4,0,0.8,0.3,0.8,0.8S19.9,11.3,19.5,11.3z"/>
</g>
<g>
	<path d="M16.5,15c-0.2,0-0.4-0.1-0.5-0.2c-0.3-0.3-0.3-0.8,0-1.1l3.2-3.2L16,7.3c-0.3-0.3-0.3-0.8,0-1.1s0.8-0.3,1.1,0l3.8,3.8
		c0.3,0.3,0.3,0.8,0,1.1L17,14.8C16.9,14.9,16.7,15,16.5,15z"/>
</g>
</svg>
